{
    "rides": [
        {
            "id": 1,
            "code": "JKBHK7765HJ",
            "date": "2018-03-28T09:53:26+00:00",
            "status": "taken",
            "from": "ул. Минская д.16 корп.2 кв.122",
            "to": "ул. Минская д.1 корп.2 кв.122",
            "description": "школа",
            "distance": "44",
            "comment": ""
        },
        {
            "id": 2,
            "code": "JKBHK7765HJ",
            "date": "2018-03-28T09:53:26+00:00",
            "status": "canceled",
            "from": "ул. Минская д.16 корп.2 кв.122",
            "to": "ул. Минская д.1 корп.2 кв.122",
            "description": "школа",
            "distance": "44",
            "comment": "Текст отзыва"
        },
        {
            "id": 3,
            "code": "JKBHK7765HJ",
            "date": "2018-03-28T09:53:26+00:00",
            "status": "inProgress",
            "from": "ул. Минская д.16 корп.2 кв.122",
            "to": "ул. Минская д.1 корп.2 кв.122",
            "description": "школа",
            "distance": "44",
            "comment": "Текст отзыва"
        },
        {
            "id": 4,
            "code": "JKBHK7765HJ",
            "date": "2017-03-28T09:53:26+00:00",
            "status": "taken",
            "from": "ул. Минская д.16 корп.2 кв.122",
            "to": "ул. Минская д.1 корп.2 кв.122",
            "description": "школа",
            "distance": "44",
            "comment": "Текст отзыва"
        },
        {
            "id": 5,
            "code": "JKBHK7765HJ",
            "date": "2017-03-28T09:53:26+00:00",
            "status": "inProgress",
            "from": "ул. Минская д.16 корп.2 кв.122",
            "to": "ул. Минская д.1 корп.2 кв.122",
            "description": "школа",
            "distance": "44",
            "comment": "Текст отзыва"
        },
        {
            "id": 6,
            "code": "JKBHK7765HJ",
            "date": "2017-03-28T09:53:26+00:00",
            "status": "taken",
            "from": "ул. Минская д.16 корп.2 кв.122",
            "to": "ул. Минская д.1 корп.2 кв.122",
            "description": "школа",
            "distance": "44",
            "comment": ""
        }
    ]
}
