{
    "members": [
        {
            "name": "Дмитрий Кухтин",
            "role": "Идея и организация",
            "image": "dmitry_kuhtin.png",
            "profile": "#"
        },
        {
            "name": "Дмитрий Кухтин",
            "role": "Идея и организация",
            "image": "dmitry_kuhtin.png",
            "profile": "#"
        },
        {
            "name": "Дмитрий Кухтин",
            "role": "Идея и организация",
            "image": "dmitry_kuhtin.png",
            "profile": "#"
        },
        {
            "name": "Дмитрий Кухтин",
            "role": "Идея и организация",
            "image": "dmitry_kuhtin.png",
            "profile": "#"
        },
        {
            "name": "Дмитрий Кухтин",
            "role": "Идея и организация",
            "image": "dmitry_kuhtin.png",
            "profile": "#"
        },
        {
            "name": "Дмитрий Кухтин",
            "role": "Идея и организация",
            "image": "dmitry_kuhtin.png",
            "profile": "#"
        },
        {
            "name": "Дмитрий Кухтин",
            "role": "Идея и организация",
            "image": "dmitry_kuhtin.png",
            "profile": "#"
        },
        {
            "name": "Дмитрий Кухтин",
            "role": "Идея и организация",
            "image": "dmitry_kuhtin.png",
            "profile": "#"
        },
        {
            "name": "Дмитрий Кухтин",
            "role": "Идея и организация",
            "image": "dmitry_kuhtin.png",
            "profile": "#"
        },
        {
            "name": "Дмитрий Кухтин",
            "role": "Идея и организация",
            "image": "dmitry_kuhtin.png",
            "profile": "#"
        }
    ]
}
